…
``` r
rushmore_sub
#> # A tibble: 4 x 4
#>   ID    Timecode_in Timecode_out Text_content                              
#>   <chr> <time>      <time>       <chr>                                     
#> 1 180   20'40.969"  20'48.269"   Rushmore deserves an aquarium. A first cl…
#> 2 181   20'48.269"  20'50.870"   - I don't know. What do you think, Ernie …
#> 3 182   20'50.946"  20'57.370"   - What kind of fish? - Barracudas. Stingr…
#> 4 183   20'58.051"  21'01.770"   - Piranhas? Really? - Yes, I'm talking to…

unnest_tokens(rushmore_sub)
#> # A tibble: 49 x 4
#>    ID    Timecode_in Timecode_out Text_content
#>    <chr> <time>      <time>       <chr>       
#>  1 180   20'40.9700" 20'41.4858"  rushmore    
#>  2 180   20'41.4868" 20'42.0026"  deserves    
#>  3 180   20'42.0036" 20'42.1318"  an          
#>  4 180   20'42.1328" 20'42.6486"  aquarium    
#>  5 180   20'42.6496" 20'42.7132"  a           
#>  6 180   20'42.7142" 20'43.0363"  first       
#>  7 180   20'43.0373" 20'43.3593"  class       
#>  8 180   20'43.3603" 20'43.8761"  aquarium    
#>  9 180   20'43.8771" 20'44.1991"  where       
#> 10 180   20'44.2001" 20'44.8451"  scientists  
#> # … with 39 more rows
…
