Subtitle Text Analysis with subtools
…
write_subtitles(x = subs_shifted, file = "synced_episode.srt")

8. Text analysis with tidytext

Tokenising into words

unnest_tokens() extends
tidytext::unnest_tokens() with subtitle-aware timecode
remapping: each token inherits a proportional slice of the original
cue’s time window, enabling timeline-based analyses.

words <- unnest_tokens(tbl = subs)
words
#> # A tibble: 35 × 4
#>    ID    Timecode_in Timecode_out Text_content
#>    <chr> <time>      <time>       <chr>       
#>  1 1     00'22.5010" 00'22.6702"  lorem       
#>  2 1     00'22.6712" 00'22.8404"  ipsum       
#>  3 1     00'22.8414" 00'23.0106"  dolor       
#>  4 1     00'23.0116" 00'23.1128"  sit         
#>  5 1     00'23.1138" 00'23.2489"  amet        
#>  6 1     00'23.2499" 00'23.6234"  consectetur 
#>  7 1     00'23.6244" 00'23.9638"  adipiscing  
#>  8 1     00'23.9648" 00'24.1000"  elit        
#>  9 2     00'25.5010" 00'25.6860"  donec       
#> 10 2     00'25.6870" 00'25.7605"  eu          
#> # ℹ 25 more rows
…
corpus <- bind_subtitles(ep1, ep2, ep3)

token_counts <- unnest_tokens(corpus) |>
  count(Episode, Text_content, sort = TRUE)

token_counts |>
  slice_max(n, n = 5, by = Episode)
#> # A tibble: 51 × 3
#>    Episode Text_content     n
#>      <int> <chr>        <int>
#>  1       1 god              5
#>  2       1 oh               5
#>  3       1 my               4
#>  4       1 think            3
#>  5       1 christ           1
#>  6       1 distance         1
#>  7       1 in               1
#>  8       1 shit             1
#>  9       1 sirens           1
#> 10       1 wailing          1
#> # ℹ 41 more rows

TF-IDF across episodes

TF-IDF highlights words that are distinctive to each episode compared
with the rest of the corpus.

token_counts |>
  tidytext::bind_tf_idf(Text_content, Episode, n) |>
  arrange(Episode, desc(tf_idf)) |>
  slice_max(tf_idf, n = 5, by = Episode)
#> # A tibble: 48 × 6
#>    Episode Text_content     n     tf   idf tf_idf
#>      <int> <chr>        <int>  <dbl> <dbl>  <dbl>
#>  1       1 god              5 0.217  1.10  0.239 
#>  2       1 oh               5 0.217  1.10  0.239 
#>  3       1 my               4 0.174  1.10  0.191 
#>  4       1 think            3 0.130  0.405 0.0529
#>  5       1 christ           1 0.0435 1.10  0.0478
#>  6       1 distance         1 0.0435 1.10  0.0478
#>  7       1 shit             1 0.0435 1.10  0.0478
#>  8       1 sirens           1 0.0435 1.10  0.0478
#>  9       1 wailing          1 0.0435 1.10  0.0478
#> 10       2 aquarium         3 0.0612 1.10  0.0673
#> # ℹ 38 more rows
…
